MBG1032 Biyoistatistik – Ders 9: Hesapsal İstatistik
…
1. specify(): Değişkenleri Belirleme

Hangi değişkenler üzerinde çalışacağımızı belirteriz

Tek değişken için: response = degisken

İki değişken için: response = y, explanatory = x veya y ~ x

# Yaş değişkenini belirtelim
gss |>
  specify(response = age)

Response: age (numeric)
# A tibble: 500 × 1
     age
   <dbl>
 1    36
 2    34
 3    24
 4    42
 5    31
 6    32
 7    48
 8    36
 9    30
10    33
# ℹ 490 more rows

# İki değişken ilişkisini belirtelim
gss |>
  specify(age ~ partyid)

Response: age (numeric)
Explanatory: partyid (factor)
# A tibble: 500 × 2
     age partyid
   <dbl> <fct>  
 1    36 ind    
 2    34 rep    
 3    24 ind    
 4    42 ind    
 5    31 rep    
 6    32 rep    
 7    48 dem    
 8    36 ind    
 9    30 rep    
10    33 dem    
# ℹ 490 more rows
…
İki temel sıfır hipotezi türü:

"independence": İki değişken arasında ilişki yok

"point": Parametre belirli bir değere eşit

# Bağımsızlık hipotezi
gss |>
  specify(college ~ partyid, success = "degree") |>
  hypothesize(null = "independence")

Response: college (factor)
Explanatory: partyid (factor)
Null Hypothesis: independence
# A tibble: 500 × 2
   college   partyid
   <fct>     <fct>  
 1 degree    ind    
 2 no degree rep    
 3 degree    ind    
 4 no degree ind    
 5 degree    rep    
 6 no degree rep    
 7 no degree dem    
 8 degree    ind    
 9 degree    rep    
10 no degree dem    
# ℹ 490 more rows

# Ortalama için nokta hipotezi
gss |>
  specify(response = hours) |>
  hypothesize(null = "point", mu = 40)

Response: hours (numeric)
Null Hypothesis: point
# A tibble: 500 × 1
   hours
   <dbl>
 1    50
 2    31
 3    40
 4    40
 5    40
 6    53
 7    32
 8    20
 9    40
10    40
# ℹ 490 more rows
…
bootstrap: Yerine koyarak örnekleme

permute: Değişkenleri karıştırma

draw: Teorik dağılımdan örnekleme

# 1000 bootstrap örneği oluşturalım
gss |>
  specify(response = hours) |>
  hypothesize(null = "point", mu = 40) |>
  generate(reps = 1000, type = "bootstrap")

Response: hours (numeric)
Null Hypothesis: point
# A tibble: 500,000 × 2
# Groups:   replicate [1,000]
   replicate hours
       <int> <dbl>
 1         1  38.6
 2         1  55.6
 3         1  38.6
 4         1  50.6
 5         1  38.6
 6         1  18.6
 7         1  23.6
 8         1  18.6
 9         1  38.6
10         1  58.6
# ℹ 499,990 more rows

generate(): Veri Karıştırma Örneği

# Yaş ve parti ilişkisini kırmak için değişkenleri karıştıralım
gss |>
  specify(partyid ~ age) |>
  hypothesize(null = "independence") |>
  generate(reps = 1000, type = "permute")

Response: partyid (factor)
Explanatory: age (numeric)
Null Hypothesis: independence
# A tibble: 500,000 × 3
# Groups:   replicate [1,000]
   partyid   age replicate
   <fct>   <dbl>     <int>
 1 ind        36         1
 2 ind        34         1
 3 rep        24         1
 4 dem        42         1
 5 dem        31         1
 6 rep        32         1
 7 ind        48         1
 8 rep        36         1
 9 dem        30         1
10 rep        33         1
# ℹ 499,990 more rows
…
Ortalama, medyan, oran, fark, t-istatistiği ve daha fazlası

Sıfır dağılımını oluşturur

# Ortalama çalışma saatlerinin dağılımını hesaplayalım
gss |>
  specify(response = hours) |>
  hypothesize(null = "point", mu = 40) |>
  generate(reps = 1000, type = "bootstrap") |>
  calculate(stat = "mean")

Response: hours (numeric)
Null Hypothesis: point
# A tibble: 1,000 × 2
   replicate  stat
       <int> <dbl>
 1         1  40.5
 2         2  40.6
 3         3  39.3
 4         4  39.7
 5         5  40.0
 6         6  39.9
 7         7  39.7
 8         8  40.8
 9         9  40.3
10        10  40.6
# ℹ 990 more rows
…
